{
  "swagger" : "2.0",
  "info" : {
    "version" : "0.0.1",
    "title" : "avtocompetion"
  },
  "host" : "localhost:10011",
  "basePath" : "/api/v1",
  "schemes" : [ "http", "https" ],
  "consumes" : [ "application/json" ],
  "produces" : [ "application/json" ],
  "paths" : {
    "/avto" : {
      "get" : {
        "description" : "List of racers",
        "operationId" : "listracers",
        "parameters" : [ {
          "name" : "spotId",
          "in" : "query",
          "description" : "race place spot to filter out",
          "required" : false,
          "type" : "string"
        }, {
          "name" : "number of peoples",
          "in" : "query",
          "description" : "number of race events",
          "required" : false,
          "type" : "string"
        }, {
          "name" : "endTime",
          "in" : "query",
          "description" : "End time of race updates",
          "required" : false,
          "type" : "string"
        }, {
          "name" : "page",
          "in" : "query",
          "description" : "Page to iterate, 1 is default",
          "required" : false,
          "type" : "number"
        } ],
        "responses" : {
          "200" : {
            "description" : "Success",
            "schema" : {
              "type" : "array",
              "items" : {
                "$ref" : "#/definitions/Races"
              }
            }
          },
          "default" : {
            "description" : "Error",
            "schema" : {
              "$ref" : "#/definitions/ErrorResponse"
            }
          }
        }
      },
      "x-swagger-router-controller" : "orders",
      "x-swagger-pipe" : "swagger_raw"
    }
  },
  "definitions" : {
    "Races" : {
      "required" : [ "name" ],
      "properties" : {
        "name" : {
          "type" : "string"
        },
        "geo" : {
          "type" : "string"
        },
        "coast" : {
          "type" : "string"
        },
        "BonusTypes" : {
          "type" : "array",
          "description" : "race events that are available to order",
          "items" : {
            "type" : "string"
          }
        }
      }
    },
    "Racevents" : {
      "required" : [ "id" ],
      "properties" : {
        "id" : {
          "type" : "string"
        },
        "takeOffId" : {
          "type" : "number"
        },
        "teaType" : {
          "type" : "string"
        },
        "time" : {
          "type" : "string"
        },
        "status" : {
          "type" : "string",
          "description" : "queue | ready | taken"
        }
      }
    },
    "RaceType" : {
      "required" : [ "id" ],
      "properties" : {
        "id" : {
          "type" : "string"
        },
        "name" : {
          "type" : "string"
        }
      }
    },
    "ErrorResponse" : {
      "required" : [ "message" ],
      "properties" : {
        "message" : {
          "type" : "string"
        }
      }
    }
  }
}